{
	"info": {
		"_postman_id": "2918fb91-1a26-46d9-b40d-dce634a87dac",
		"name": "Testes da API  - Busca e Correção de itens",
		"description": "Nessa collection testamos se as regras da API de busca e correção estão sendo satisfeitas.",
		"schema": "https://schema.getpostman.com/json/collection/v2.1.0/collection.json"
	},
	"item": [
		{
			"name": "Essa requisição monta o ambiente de testes",
			"event": [
				{
					"listen": "test",
					"script": {
						"id": "37a70bd5-7f0b-48bb-acff-517b5d231d50",
						"exec": [
							"pm.test(\"Payload de resposta correto\", function () {",
							"    var jsonData = pm.response.json();",
							"    pm.expect(jsonData).to.eql({",
							"        \"situacao\": \"SUCESSO\",",
							"        \"descrição\": \"Ambiente de testes preparado com sucesso\"",
							"    });",
							"});",
							"pm.test(\"Código de status de resposta é 200\", function () {",
							"    pm.response.to.have.status(200);",
							"});"
						],
						"type": "text/javascript"
					}
				}
			],
			"request": {
				"method": "POST",
				"header": [],
				"url": {
					"raw": "localhost:3003/correcoes/reset",
					"host": [
						"localhost"
					],
					"port": "3003",
					"path": [
						"correcoes",
						"reset"
					]
				},
				"description": "Essa requisição limpa a base e monta o cenário de testes para as próximas requisições"
			},
			"response": []
		},
		{
			"name": "Essa requisição recupera a próxima correção da fila - com status 'DISPONIVEL'",
			"event": [
				{
					"listen": "test",
					"script": {
						"id": "13774880-c202-467e-8697-f4e69cf0903e",
						"exec": [
							"pm.test(\"Payload de resposta correto\", function () {",
							"    var jsonData = pm.response.json();",
							"    pm.expect(jsonData).to.eql({",
							"    \"data\": {",
							"        \"id\": 9859662,",
							"        \"item\": \"D020006H6\",",
							"        \"referencia\": \"upload/correcao_9859662.png\",",
							"        \"sequencial\": \"68300003130128\",",
							"        \"solicitacao\": \"2000000885\",",
							"        \"situacao\": \"DISPONIVEL\",",
							"        \"ordem\": 1,",
							"        \"chave\": [",
							"            {",
							"                \"id\": 186,",
							"                \"titulo\": \"Chave de correção 1\",",
							"                \"opcoes\": [",
							"                    {",
							"                        \"valor\": \"0\",",
							"                        \"descricao\": \"Certo\"",
							"                    },",
							"                    {",
							"                        \"valor\": \"1\",",
							"                        \"descricao\": \"Errado\"",
							"                    }",
							"                ]",
							"            }",
							"        ]",
							"    },",
							"    \"situacao\": \"SUCESSO\"",
							"});",
							"});",
							"pm.test(\"Código de status de resposta é 200\", function () {",
							"    pm.response.to.have.status(200);",
							"});"
						],
						"type": "text/javascript"
					}
				}
			],
			"request": {
				"method": "GET",
				"header": [],
				"url": {
					"raw": "localhost:3003/correcoes/proxima?reservada=false",
					"host": [
						"localhost"
					],
					"port": "3003",
					"path": [
						"correcoes",
						"proxima"
					],
					"query": [
						{
							"key": "reservada",
							"value": "false"
						}
					]
				},
				"description": "Essa requisição vai recuperar a próxima correção com status \"DISPONIVEL\" de menor ordem"
			},
			"response": []
		},
		{
			"name": "Essa requisição recupera a próxima correção da fila - com status 'RESERVADA'",
			"event": [
				{
					"listen": "test",
					"script": {
						"id": "d1e99ab2-b403-4ade-bd62-cae18d49fedb",
						"exec": [
							"pm.test(\"Payload de resposta correto\", function () {",
							"    var jsonData = pm.response.json();",
							"    pm.expect(jsonData).to.eql({",
							"    \"data\": {",
							"        \"id\": 9859664,",
							"        \"item\": \"D6530006C7\",",
							"        \"referencia\": \"upload/correcao_9859664.png\",",
							"        \"sequencial\": \"68300003130128\",",
							"        \"solicitacao\": \"2000000886\",",
							"        \"situacao\": \"RESERVADA\",",
							"        \"ordem\": 3,",
							"        \"chave\": [",
							"            {",
							"                \"id\": 186,",
							"                \"titulo\": \"Chave de correção 1\",",
							"                \"opcoes\": [",
							"                    {",
							"                        \"valor\": \"0\",",
							"                        \"descricao\": \"Certo\"",
							"                    },",
							"                    {",
							"                        \"valor\": \"1\",",
							"                        \"descricao\": \"Errado\"",
							"                    }",
							"                ]",
							"            },",
							"            {",
							"                \"id\": 188,",
							"                \"titulo\": \"Chave de correção 3\",",
							"                \"opcoes\": [",
							"                    {",
							"                        \"valor\": \"0\",",
							"                        \"descricao\": \"0\"",
							"                    },",
							"                    {",
							"                        \"valor\": \"1\",",
							"                        \"descricao\": \"1\"",
							"                    },",
							"                    {",
							"                        \"valor\": \"2\",",
							"                        \"descricao\": \"2\"",
							"                    },",
							"                    {",
							"                        \"valor\": \"3\",",
							"                        \"descricao\": \"3\"",
							"                    },",
							"                    {",
							"                        \"valor\": \"4\",",
							"                        \"descricao\": \"4\"",
							"                    },",
							"                    {",
							"                        \"valor\": \"5\",",
							"                        \"descricao\": \"5\"",
							"                    }",
							"                ]",
							"            }",
							"        ]",
							"    },",
							"    \"situacao\": \"SUCESSO\"",
							"});",
							"});",
							"pm.test(\"Código de status de resposta é 200\", function () {",
							"    pm.response.to.have.status(200);",
							"});"
						],
						"type": "text/javascript"
					}
				}
			],
			"request": {
				"method": "GET",
				"header": [],
				"url": {
					"raw": "localhost:3003/correcoes/proxima?reservada=true",
					"host": [
						"localhost"
					],
					"port": "3003",
					"path": [
						"correcoes",
						"proxima"
					],
					"query": [
						{
							"key": "reservada",
							"value": "true"
						}
					]
				},
				"description": "Essa requisição vai recuperar a próxima correção com status \"RESERVADA\" de menor ordem."
			},
			"response": []
		},
		{
			"name": "Essa requisição recupera todas as correções com o status 'RESERVADA'",
			"event": [
				{
					"listen": "test",
					"script": {
						"id": "4333057d-9741-4e1a-868f-7bd5298937c4",
						"exec": [
							"pm.test(\"Payload de resposta correto\", function () {",
							"    var jsonData = pm.response.json();",
							"    pm.expect(jsonData).to.eql({",
							"    \"data\": [",
							"        {",
							"            \"id\": 9859664,",
							"            \"item\": \"D6530006C7\",",
							"            \"referencia\": \"upload/correcao_9859664.png\",",
							"            \"sequencial\": \"68300003130128\",",
							"            \"solicitacao\": \"2000000886\",",
							"            \"situacao\": \"RESERVADA\",",
							"            \"ordem\": 3,",
							"            \"chave\": [",
							"                {",
							"                    \"id\": 186,",
							"                    \"titulo\": \"Chave de correção 1\",",
							"                    \"opcoes\": [",
							"                        {",
							"                            \"valor\": \"0\",",
							"                            \"descricao\": \"Certo\"",
							"                        },",
							"                        {",
							"                            \"valor\": \"1\",",
							"                            \"descricao\": \"Errado\"",
							"                        }",
							"                    ]",
							"                },",
							"                {",
							"                    \"id\": 188,",
							"                    \"titulo\": \"Chave de correção 3\",",
							"                    \"opcoes\": [",
							"                        {",
							"                            \"valor\": \"0\",",
							"                            \"descricao\": \"0\"",
							"                        },",
							"                        {",
							"                            \"valor\": \"1\",",
							"                            \"descricao\": \"1\"",
							"                        },",
							"                        {",
							"                            \"valor\": \"2\",",
							"                            \"descricao\": \"2\"",
							"                        },",
							"                        {",
							"                            \"valor\": \"3\",",
							"                            \"descricao\": \"3\"",
							"                        },",
							"                        {",
							"                            \"valor\": \"4\",",
							"                            \"descricao\": \"4\"",
							"                        },",
							"                        {",
							"                            \"valor\": \"5\",",
							"                            \"descricao\": \"5\"",
							"                        }",
							"                    ]",
							"                }",
							"            ]",
							"        },",
							"        {",
							"            \"id\": 9859668,",
							"            \"item\": \"D6530006D2\",",
							"            \"referencia\": \"upload/correcao_9859668.png\",",
							"            \"sequencial\": \"68300003130128\",",
							"            \"solicitacao\": \"2000000886\",",
							"            \"situacao\": \"RESERVADA\",",
							"            \"ordem\": 7,",
							"            \"chave\": [",
							"                {",
							"                    \"id\": 186,",
							"                    \"titulo\": \"Chave de correção 1\",",
							"                    \"opcoes\": [",
							"                        {",
							"                            \"valor\": \"0\",",
							"                            \"descricao\": \"Certo\"",
							"                        },",
							"                        {",
							"                            \"valor\": \"1\",",
							"                            \"descricao\": \"Errado\"",
							"                        }",
							"                    ]",
							"                },",
							"                {",
							"                    \"id\": 188,",
							"                    \"titulo\": \"Chave de correção 3\",",
							"                    \"opcoes\": [",
							"                        {",
							"                            \"valor\": \"0\",",
							"                            \"descricao\": \"0\"",
							"                        },",
							"                        {",
							"                            \"valor\": \"1\",",
							"                            \"descricao\": \"1\"",
							"                        },",
							"                        {",
							"                            \"valor\": \"2\",",
							"                            \"descricao\": \"2\"",
							"                        },",
							"                        {",
							"                            \"valor\": \"3\",",
							"                            \"descricao\": \"3\"",
							"                        },",
							"                        {",
							"                            \"valor\": \"4\",",
							"                            \"descricao\": \"4\"",
							"                        },",
							"                        {",
							"                            \"valor\": \"5\",",
							"                            \"descricao\": \"5\"",
							"                        }",
							"                    ]",
							"                }",
							"            ]",
							"        }",
							"    ],",
							"    \"situacao\": \"SUCESSO\"",
							"});",
							"});",
							"pm.test(\"Código de status de resposta é 200\", function () {",
							"    pm.response.to.have.status(200);",
							"});"
						],
						"type": "text/javascript"
					}
				}
			],
			"request": {
				"method": "GET",
				"header": [],
				"url": {
					"raw": "localhost:3003/correcoes/reservadas",
					"host": [
						"localhost"
					],
					"port": "3003",
					"path": [
						"correcoes",
						"reservadas"
					]
				},
				"description": "Essa requisição recupera todas as correções com o status de \"RESERVADA\" na base de dados"
			},
			"response": []
		},
		{
			"name": "Essa requisição tenta salvar uma correção fora da ordem da fila",
			"event": [
				{
					"listen": "test",
					"script": {
						"id": "60f6c277-f50f-4781-a069-0c227f8e59aa",
						"exec": [
							"pm.test(\"Payload de resposta correto\", function () {",
							"    var jsonData = pm.response.json();",
							"    pm.expect(jsonData).to.eql({",
							"    \"situacao\": \"ERRO\",",
							"    \"tipo\": \"ITEM_INVALIDO\",",
							"    \"descrição\": \"Item inválido para correção\"",
							"});",
							"});",
							"pm.test(\"Código de status de resposta é 200\", function () {",
							"    pm.response.to.have.status(200);",
							"});"
						],
						"type": "text/javascript"
					}
				}
			],
			"request": {
				"method": "POST",
				"header": [],
				"body": {
					"mode": "urlencoded",
					"urlencoded": [
						{
							"key": "chave[0][id]",
							"value": "186",
							"type": "text"
						},
						{
							"key": "chave[0][valor]",
							"value": "0",
							"type": "text"
						}
					]
				},
				"url": {
					"raw": "localhost:3003/correcoes/:idCorrecao",
					"host": [
						"localhost"
					],
					"port": "3003",
					"path": [
						"correcoes",
						":idCorrecao"
					],
					"variable": [
						{
							"key": "idCorrecao",
							"value": "9859665"
						}
					]
				},
				"description": "Ao tentar corrigir um item fora da fila é gerado um erro"
			},
			"response": []
		},
		{
			"name": "Essa requisição salvar uma correção que está na ordem certa porém com chave inválida",
			"event": [
				{
					"listen": "test",
					"script": {
						"id": "d37aa6d6-437b-47b9-b1f1-1e98a09a98a1",
						"exec": [
							"pm.test(\"Payload de resposta correto\", function () {",
							"    var jsonData = pm.response.json();",
							"    pm.expect(jsonData).to.eql({",
							"    \"situacao\": \"ERRO\",",
							"    \"tipo\": \"CHAVE_INCORRETA\",",
							"    \"descrição\": \"Chave de correção incorreta. Valor 99 não é válido para o item 186\"",
							"});",
							"});",
							"pm.test(\"Código de status de resposta é 200\", function () {",
							"    pm.response.to.have.status(200);",
							"});"
						],
						"type": "text/javascript"
					}
				}
			],
			"request": {
				"method": "POST",
				"header": [],
				"body": {
					"mode": "urlencoded",
					"urlencoded": [
						{
							"key": "chave[0][id]",
							"value": "186",
							"type": "text"
						},
						{
							"key": "chave[0][valor]",
							"value": "99",
							"type": "text"
						}
					]
				},
				"url": {
					"raw": "localhost:3003/correcoes/:idCorrecao",
					"host": [
						"localhost"
					],
					"port": "3003",
					"path": [
						"correcoes",
						":idCorrecao"
					],
					"variable": [
						{
							"key": "idCorrecao",
							"value": "9859662"
						}
					]
				},
				"description": "Essa requisição tenta corrigir um item que está na ordem certa porém com chave inválida, gerando portanto um erro"
			},
			"response": []
		},
		{
			"name": "Essa requisição salva uma correção que está na ordem certa e com a chave e opção corretas",
			"event": [
				{
					"listen": "test",
					"script": {
						"id": "8f110284-f283-48ee-a9b2-246f19f98746",
						"exec": [
							"pm.test(\"Payload de resposta correto\", function () {",
							"    var jsonData = pm.response.json();",
							"    pm.expect(jsonData).to.eql({",
							"    \"situacao\": \"SUCESSO\",",
							"    \"descrição\": \"Correção salva com sucesso\"",
							"});",
							"});",
							"pm.test(\"Código de status de resposta é 200\", function () {",
							"    pm.response.to.have.status(200);",
							"});"
						],
						"type": "text/javascript"
					}
				}
			],
			"request": {
				"method": "POST",
				"header": [],
				"body": {
					"mode": "urlencoded",
					"urlencoded": [
						{
							"key": "chave[0][id]",
							"value": "186",
							"type": "text"
						},
						{
							"key": "chave[0][valor]",
							"value": "1",
							"type": "text"
						}
					]
				},
				"url": {
					"raw": "localhost:3003/correcoes/:idCorrecao",
					"host": [
						"localhost"
					],
					"port": "3003",
					"path": [
						"correcoes",
						":idCorrecao"
					],
					"variable": [
						{
							"key": "idCorrecao",
							"value": "9859662"
						}
					]
				},
				"description": "Essa requisição corrige um item que está na ordem correta e com a chave correta."
			},
			"response": []
		},
		{
			"name": "Essa requisição tenta salvar uma correção de um item que já foi corrigido",
			"event": [
				{
					"listen": "test",
					"script": {
						"id": "63c45296-9cd2-49ba-9435-3d544b4d4c63",
						"exec": [
							"pm.test(\"Payload de resposta correto\", function () {",
							"    var jsonData = pm.response.json();",
							"    pm.expect(jsonData).to.eql({",
							"    \"situacao\": \"ERRO\",",
							"    \"tipo\": \"ITEM_CORRIGIDO\",",
							"    \"descrição\": \"Item já corrigido\"",
							"});",
							"});",
							"pm.test(\"Código de status de resposta é 200\", function () {",
							"    pm.response.to.have.status(200);",
							"});"
						],
						"type": "text/javascript"
					}
				}
			],
			"request": {
				"method": "POST",
				"header": [],
				"body": {
					"mode": "urlencoded",
					"urlencoded": [
						{
							"key": "chave[0][id]",
							"value": "186",
							"type": "text"
						},
						{
							"key": "chave[0][valor]",
							"value": "1",
							"type": "text"
						}
					]
				},
				"url": {
					"raw": "localhost:3003/correcoes/:idCorrecao",
					"host": [
						"localhost"
					],
					"port": "3003",
					"path": [
						"correcoes",
						":idCorrecao"
					],
					"variable": [
						{
							"key": "idCorrecao",
							"value": "9859662"
						}
					]
				},
				"description": "Essa requisição tenta salvar uma correção que já está corrigida, gerando assim um erro como resposta."
			},
			"response": []
		},
		{
			"name": "Essa requisição salva uma correção de um item reservado que não é o próximo da fila",
			"event": [
				{
					"listen": "test",
					"script": {
						"id": "42a12891-2f35-418a-89a5-e474d822e274",
						"exec": [
							"pm.test(\"Payload de resposta correto\", function () {",
							"    var jsonData = pm.response.json();",
							"    pm.expect(jsonData).to.eql({",
							"    \"situacao\": \"SUCESSO\",",
							"    \"descrição\": \"Correção salva com sucesso\"",
							"});",
							"});",
							"pm.test(\"Código de status de resposta é 200\", function () {",
							"    pm.response.to.have.status(200);",
							"});"
						],
						"type": "text/javascript"
					}
				}
			],
			"request": {
				"method": "POST",
				"header": [],
				"body": {
					"mode": "urlencoded",
					"urlencoded": [
						{
							"key": "chave[0][id]",
							"value": "188",
							"type": "text"
						},
						{
							"key": "chave[0][valor]",
							"value": "5",
							"type": "text"
						}
					]
				},
				"url": {
					"raw": "localhost:3003/correcoes/:idCorrecao",
					"host": [
						"localhost"
					],
					"port": "3003",
					"path": [
						"correcoes",
						":idCorrecao"
					],
					"variable": [
						{
							"key": "idCorrecao",
							"value": "9859664"
						}
					]
				},
				"description": "Itens reservados podem ser corrigidos em qualquer ordem, essa requisição mostra que se pode corrigir com qualquer ordem um item reservado."
			},
			"response": []
		},
		{
			"name": "Essa requisição exclui todas as correções da base de dados",
			"event": [
				{
					"listen": "test",
					"script": {
						"id": "3c24acc4-6fbe-4013-b153-c7bb2a68e025",
						"exec": [
							"pm.test(\"Payload de resposta correto\", function () {",
							"    var jsonData = pm.response.json();",
							"    pm.expect(jsonData).to.eql({",
							"    \"situacao\": \"SUCESSO\",",
							"    \"descrição\": \"Correções excluídas com sucesso\"",
							"});",
							"});",
							"pm.test(\"Código de status de resposta é 200\", function () {",
							"    pm.response.to.have.status(200);",
							"});"
						],
						"type": "text/javascript"
					}
				}
			],
			"request": {
				"method": "DELETE",
				"header": [],
				"body": {
					"mode": "urlencoded",
					"urlencoded": [
						{
							"key": "chave[0][id]",
							"value": "186",
							"type": "text"
						},
						{
							"key": "chave[0][valor]",
							"value": "1",
							"type": "text"
						}
					]
				},
				"url": {
					"raw": "localhost:3003/correcoes/excluirTodas",
					"host": [
						"localhost"
					],
					"port": "3003",
					"path": [
						"correcoes",
						"excluirTodas"
					]
				},
				"description": "Essa requisição exclui todas as correções da base de dados preparando o próximo teste que é tentar recuperar uma nova correção onde não há mais nenhuma outra disponível."
			},
			"response": []
		},
		{
			"name": "Essa requisição tenta recuperar uma correção onde a base de dados está vazia",
			"event": [
				{
					"listen": "test",
					"script": {
						"id": "ff15729c-4489-4f7a-8ddc-6bf259a670be",
						"exec": [
							"pm.test(\"Payload de resposta correto\", function () {",
							"    var jsonData = pm.response.json();",
							"    pm.expect(jsonData).to.eql({",
							"    \"data\": null,",
							"    \"situacao\": \"ERRO\",",
							"    \"tipo\": \"SEM_CORRECAO\",",
							"    \"descrição\": \"Não existem mais correções disponíveis\"",
							"});",
							"});",
							"pm.test(\"Código de status de resposta é 404\", function () {",
							"    pm.response.to.have.status(404);",
							"});"
						],
						"type": "text/javascript"
					}
				}
			],
			"request": {
				"method": "GET",
				"header": [],
				"url": {
					"raw": "localhost:3003/correcoes/proxima?reservada=false",
					"host": [
						"localhost"
					],
					"port": "3003",
					"path": [
						"correcoes",
						"proxima"
					],
					"query": [
						{
							"key": "reservada",
							"value": "false"
						}
					]
				},
				"description": "Ao fazer essa requisição a mensagem de que não há mais itens disponíveis é mostrada."
			},
			"response": []
		}
	],
	"event": [
		{
			"listen": "prerequest",
			"script": {
				"id": "f2d011d2-9a73-464c-aa54-eb5623965651",
				"type": "text/javascript",
				"exec": [
					""
				]
			}
		},
		{
			"listen": "test",
			"script": {
				"id": "515e590c-1f58-4517-ba65-460a9ee1dd85",
				"type": "text/javascript",
				"exec": [
					""
				]
			}
		}
	],
	"protocolProfileBehavior": {}
}